
{
    "type": "mysql",
    "host": "koinage-test-bk.cowhlpgtmot3.ap-southeast-1.rds.amazonaws.com",
    "port": 3306,
    "username": "root",
    "password": "Un82ZxM!Cx$9",
    "database": "trx_lending",
    "entities": ["dist/**/*.entity{.ts,.js}"],
    "synchronize": false
}   